Chapter 1 Exercise 1 | Epidemiological exercises in R
…
## Parsed with column specification:
## cols(
##   TEST = col_character(),
##   OBS = col_double(),
##   ESTIMATE = col_double(),
##   ACTUAL = col_double()
## )

# print the data
a

## # A tibble: 60 x 5
##    TEST       OBS ESTIMATE ACTUAL  DIFF
##    <chr>    <dbl>    <dbl>  <dbl> <dbl>
##  1 BASELINE     1        2      7    -5
##  2 BASELINE     2       25     39   -14
##  3 BASELINE     3       35     49   -14
##  4 BASELINE     4       20     34   -14
##  5 BASELINE     5        5      8    -3
##  6 BASELINE     6       50     57    -7
##  7 BASELINE     7        5     14    -9
##  8 BASELINE     8       50     57    -7
##  9 BASELINE     9       60     73   -13
## 10 BASELINE    10        2      9    -7
## # ... with 50 more rows
…
