Chapter 3 Exercise 9.5 | Epidemiological exercises in R
…
# Import data
a <- read_csv("https://raw.githubusercontent.com/luckymehra/epidem-exercises/master/data/ex9_5.csv")

## Parsed with column specification:
## cols(
##   COL = col_double(),
##   ROW = col_double(),
##   YI = col_double()
## )

# print the data
a

## # A tibble: 144 x 3
##      COL   ROW    YI
##    <dbl> <dbl> <dbl>
##  1     1     1     2
##  2     2     1     2
##  3     3     1     0
##  4     4     1     3
##  5     5     1     1
##  6     6     1     1
##  7     7     1     1
##  8     8     1     5
##  9     9     1    22
## 10    10     1    13
## # ... with 134 more rows
…
