Chapter 4 Yield loss | Epidemiological exercises in R
…
## Parsed with column specification:
## cols(
##   WP = col_double(),
##   SP = col_character(),
##   BLK = col_double(),
##   TRT = col_double(),
##   FUNG = col_double(),
##   DS = col_double(),
##   YIELD = col_double()
## )

# print the data
a

## # A tibble: 24 x 7
##       WP SP      BLK   TRT  FUNG    DS YIELD
##    <dbl> <chr> <dbl> <dbl> <dbl> <dbl> <dbl>
##  1   101 A         1     1     0    43   205
##  2   101 B         1     1     1     1   399
##  3   102 A         1     2     1     2   426
##  4   102 B         1     2     0    92   102
##  5   103 A         1     3     1     2   385
##  6   103 B         1     3     0     7   355
##  7   201 A         2     2     1     4   412
##  8   201 B         2     2     0    75   224
##  9   202 A         2     3     1     3   425
## 10   202 B         2     3     0    10   352
## # ... with 14 more rows
…
